{
        "Alexia": {"Kellian": 2, "Christelle": 1},
        "Isabelle": {"Inès R.": 1, "Kanel": 2},
        "Inès R.": {"Isabelle": 1, "Amin": 2},
        "Caroline": {"Isabelle": 1, "Amin": 2},
        "Kanel": {"Isabelle": 1, "Lakchika": 2},
        "Jannah": {"Anita": 2, "Lucy": 1},
        "Amin": {"Lakchika": 1, "Inès L.": 2},
        "Alexandre": {"Isabelle": 1, "Lakchika": 2},
        "Salsabile": {"Alexis": 2, "Christelle": 1},
        "Christelle": {"Salsabile": 1, "Alexis": 2},
        "Alexis": {"Salsabile": 1, "Christelle": 2},
        "Kellian": {"J-B": 1, "Amin": 2},
        "J-B": {"Kellian": 1, "Amin": 2},
        "Inès L.": {"Nina": 2, "Isabelle": 1},
        "Nina": {"Isabelle": 2, "Prémina": 1},
        "Maysha": {"Sanaa": 2, "Lakchika": 1},
        "Mickaël": {"Sanaa": 2, "Lakchika": 1},
        "Abderahmaine": {"J-B": 1, "Maysha": 2},
        "Corentin": {"Maysha": 2, "Sanaa": 1},
        "Warrick": {"Isabelle": 1, "Prémina": 2},
        "Prémina": {"Lakchika": 1, "Clara": 2},
        "Clara": {"Prémina": 1, "Warrick": 2},
        "Lakchika": {"Sanaa": 2, "Prémina": 1},
        "Douygu": {"Nina": 1, "Prémina": 2},
        "Anita": {"Lucy": 1, "Jannah": 2},
        "Lucy": {"Anita": 1, "Jannah": 2},
        "Sanaa": {"Lakchika": 1, "Maysha": 2}
}

